............
----------------------------------------------------------------------
Ran 12 tests in 0.002s

OK
Name               Stmts   Miss Branch BrPart  Cover   Missing
--------------------------------------------------------------
Diplomacy.py          84      0     68      0   100%
TestDiplomacy.py      69      0      2      0   100%
--------------------------------------------------------------
TOTAL                153      0     70      0   100%
